[
  {
    "#": 32,
    "Name": "Abraham Corales",
    "G": 1,
    "W": 1,
    "L": 0,
    "SV": 0,
    "IP": 2,
    "BF": 10,
    "Ball": 8,
    "Str": 14,
    "PIT": 22,
    "R": 2,
    "RA": 1,
    "ER": 0,
    "ERA": 0,
    "ERA9": 0,
    "K": 3,
    "Kc": 1,
    "Ks": 2,
    "H": 1,
    "BB": 2,
    "IBB": 0,
    "K/BB": 1.5,
    "K/GI": 13.5,
    "BB/GI": 9,
    "H/GI": 4.5,
    "HB": 0,
    "BK": 0,
    "WP": 0,
    "HR": 0,
    "WHIP": 1.5,
    "OBP": 0.3,
    "BAA": 0.143,
    "GO": 1,
    "AO": 2,
    "FPS": 8,
    "FPB": 2,
    "FPS%": 0.8
  },
  {
    "#": 72,
    "Name": "Joaquin Aldabe",
    "G": 1,
    "W": 0,
    "L": 0,
    "SV": 0,
    "IP": 2.33,
    "BF": 15,
    "Ball": 6,
    "Str": 16,
    "PIT": 22,
    "R": 3,
    "RA": 1.29,
    "ER": 3,
    "ERA": 11.57,
    "ERA9": 11.57,
    "K": 2,
    "Kc": 0,
    "Ks": 2,
    "H": 4,
    "BB": 1,
    "IBB": 0,
    "K/BB": 2,
    "K/GI": 7.71,
    "BB/GI": 3.86,
    "H/GI": 15.43,
    "HB": 2,
    "BK": 0,
    "WP": 0,
    "HR": 0,
    "WHIP": 2.143,
    "OBP": 0.467,
    "BAA": 0.333,
    "GO": 4,
    "AO": 1,
    "FPS": 12,
    "FPB": 3,
    "FPS%": 0.8
  },
  {
    "#": 41,
    "Name": "Moises Perche",
    "G": 1,
    "W": 0,
    "L": 0,
    "SV": 0,
    "IP": 2.67,
    "BF": 10,
    "Ball": 4,
    "Str": 13,
    "PIT": 17,
    "R": 2,
    "RA": 0.75,
    "ER": 2,
    "ERA": 6.75,
    "ERA9": 6.75,
    "K": 2,
    "Kc": 0,
    "Ks": 2,
    "H": 3,
    "BB": 1,
    "IBB": 0,
    "K/BB": 2,
    "K/GI": 6.75,
    "BB/GI": 3.38,
    "H/GI": 10.13,
    "HB": 0,
    "BK": 0,
    "WP": 0,
    "HR": 0,
    "WHIP": 1.5,
    "OBP": 0.4,
    "BAA": 0.333,
    "GO": 2,
    "AO": 2,
    "FPS": 9,
    "FPB": 1,
    "FPS%": 0.9
  },
  {
    "#": "",
    "Name": "TOTALS",
    "G": 1,
    "W": 1,
    "L": 0,
    "SV": 0,
    "IP": 7,
    "BF": 35,
    "Ball": 18,
    "Str": 43,
    "PIT": 61,
    "R": 7,
    "RA": 1,
    "ER": 5,
    "ERA": 6.43,
    "ERA9": 6.43,
    "K": 7,
    "Kc": 1,
    "Ks": 6,
    "H": 8,
    "BB": 4,
    "IBB": 0,
    "K/BB": 1.75,
    "K/GI": 9,
    "BB/GI": 5.14,
    "H/GI": 10.29,
    "HB": 2,
    "BK": 0,
    "WP": 0,
    "HR": 0,
    "WHIP": 1.714,
    "OBP": 0.4,
    "BAA": 0.286,
    "GO": 7,
    "AO": 5,
    "FPS": 29,
    "FPB": 6,
    "FPS%": 0.829
  }
]